{
  "data": [
    {
      "name": "Vishal",
      "phone": 9310026028,
      "id": 1,
      "roomId": {
        "2": "room-1",
        "3": "room-2",
        "4": "room-3"
      }
    },
    {
      "name": "Hari",
      "phone": 8978978979,
      "id": 2,
      "roomId": {
        "1": "room-1",
        "3": "room-4",
        "4": "room-5"
      }
    }
  ]
}